{"_embedded":{"appRegistrationResourceList":[{"name":"cdc-debezium","type":"source","uri":"docker:springcloudstream/cdc-debezium-source-rabbit:3.2.1","version":"3.2.1","defaultVersion":true,"bootVersion":"2","versions":null,"label":null,"_links":{"self":{"href":"http://localhost:30080/apps/source/cdc-debezium/3.2.1"}}},{"name":"file","type":"source","uri":"docker:springcloudstream/file-source-rabbit:3.2.1","version":"3.2.1","defaultVersion":true,"bootVersion":"2","versions":null,"label":null,"_links":{"self":{"href":"http://localhost:30080/apps/source/file/3.2.1"}}},{"name":"ftp","type":"source","uri":"docker:springcloudstream/ftp-source-rabbit:3.2.1","version":"3.2.1","defaultVersion":true,"bootVersion":"2","versions":null,"label":null,"_links":{"self":{"href":"http://localhost:30080/apps/source/ftp/3.2.1"}}},{"name":"geode","type":"source","uri":"docker:springcloudstream/geode-source-rabbit:3.2.1","version":"3.2.1","defaultVersion":true,"bootVersion":"2","versions":null,"label":null,"_links":{"self":{"href":"http://localhost:30080/apps/source/geode/3.2.1"}}},{"name":"http","type":"source","uri":"docker:springcloudstream/http-source-rabbit:3.2.1","version":"3.2.1","defaultVersion":true,"bootVersion":"2","versions":null,"label":null,"_links":{"self":{"href":"http://localhost:30080/apps/source/http/3.2.1"}}},{"name":"jdbc","type":"source","uri":"docker:springcloudstream/jdbc-source-rabbit:3.2.1","version":"3.2.1","defaultVersion":true,"bootVersion":"2","versions":null,"label":null,"_links":{"self":{"href":"http://localhost:30080/apps/source/jdbc/3.2.1"}}},{"name":"jms","type":"source","uri":"docker:springcloudstream/jms-source-rabbit:3.2.1","version":"3.2.1","defaultVersion":true,"bootVersion":"2","versions":null,"label":null,"_links":{"self":{"href":"http://localhost:30080/apps/source/jms/3.2.1"}}},{"name":"load-generator","type":"source","uri":"docker:springcloudstream/load-generator-source-rabbit:3.2.1","version":"3.2.1","defaultVersion":true,"bootVersion":"2","versions":null,"label":null,"_links":{"self":{"href":"http://localhost:30080/apps/source/load-generator/3.2.1"}}},{"name":"mail","type":"source","uri":"docker:springcloudstream/mail-source-rabbit:3.2.1","version":"3.2.1","defaultVersion":true,"bootVersion":"2","versions":null,"label":null,"_links":{"self":{"href":"http://localhost:30080/apps/source/mail/3.2.1"}}},{"name":"mongodb","type":"source","uri":"docker:springcloudstream/mongodb-source-rabbit:3.2.1","version":"3.2.1","defaultVersion":true,"bootVersion":"2","versions":null,"label":null,"_links":{"self":{"href":"http://localhost:30080/apps/source/mongodb/3.2.1"}}},{"name":"mqtt","type":"source","uri":"docker:springcloudstream/mqtt-source-rabbit:3.2.1","version":"3.2.1","defaultVersion":true,"bootVersion":"2","versions":null,"label":null,"_links":{"self":{"href":"http://localhost:30080/apps/source/mqtt/3.2.1"}}},{"name":"rabbit","type":"source","uri":"docker:springcloudstream/rabbit-source-rabbit:3.2.1","version":"3.2.1","defaultVersion":true,"bootVersion":"2","versions":null,"label":null,"_links":{"self":{"href":"http://localhost:30080/apps/source/rabbit/3.2.1"}}},{"name":"s3","type":"source","uri":"docker:springcloudstream/s3-source-rabbit:3.2.1","version":"3.2.1","defaultVersion":true,"bootVersion":"2","versions":null,"label":null,"_links":{"self":{"href":"http://localhost:30080/apps/source/s3/3.2.1"}}},{"name":"sftp","type":"source","uri":"docker:springcloudstream/sftp-source-rabbit:3.2.1","version":"3.2.1","defaultVersion":true,"bootVersion":"2","versions":null,"label":null,"_links":{"self":{"href":"http://localhost:30080/apps/source/sftp/3.2.1"}}},{"name":"syslog","type":"source","uri":"docker:springcloudstream/syslog-source-rabbit:3.2.1","version":"3.2.1","defaultVersion":true,"bootVersion":"2","versions":null,"label":null,"_links":{"self":{"href":"http://localhost:30080/apps/source/syslog/3.2.1"}}},{"name":"tcp","type":"source","uri":"docker:springcloudstream/tcp-source-rabbit:3.2.1","version":"3.2.1","defaultVersion":true,"bootVersion":"2","versions":null,"label":null,"_links":{"self":{"href":"http://localhost:30080/apps/source/tcp/3.2.1"}}},{"name":"time","type":"source","uri":"docker:springcloudstream/time-source-rabbit:3.2.1","version":"3.2.1","defaultVersion":true,"bootVersion":"2","versions":null,"label":null,"_links":{"self":{"href":"http://localhost:30080/apps/source/time/3.2.1"}}},{"name":"twitter-message","type":"source","uri":"docker:springcloudstream/twitter-message-source-rabbit:3.2.1","version":"3.2.1","defaultVersion":true,"bootVersion":"2","versions":null,"label":null,"_links":{"self":{"href":"http://localhost:30080/apps/source/twitter-message/3.2.1"}}},{"name":"twitter-search","type":"source","uri":"docker:springcloudstream/twitter-search-source-rabbit:3.2.1","version":"3.2.1","defaultVersion":true,"bootVersion":"2","versions":null,"label":null,"_links":{"self":{"href":"http://localhost:30080/apps/source/twitter-search/3.2.1"}}},{"name":"twitter-stream","type":"source","uri":"docker:springcloudstream/twitter-stream-source-rabbit:3.2.1","version":"3.2.1","defaultVersion":true,"bootVersion":"2","versions":null,"label":null,"_links":{"self":{"href":"http://localhost:30080/apps/source/twitter-stream/3.2.1"}}}]},"_links":{"first":{"href":"http://localhost:30080/apps?page=0&size=20"},"self":{"href":"http://localhost:30080/apps?page=0&size=20"},"next":{"href":"http://localhost:30080/apps?page=1&size=20"},"last":{"href":"http://localhost:30080/apps?page=2&size=20"}},"page":{"size":20,"totalElements":59,"totalPages":3,"number":0}}